<?xml version="1.0" encoding="utf-8"?>
<!-- Generator: Adobe Illustrator 18.1.1, SVG Export Plug-In . SVG Version: 6.00 Build 0)  -->
<svg version="1.1" id="XMLID_2_" xmlns="http://www.w3.org/2000/svg" xmlns:xlink="http://www.w3.org/1999/xlink" x="0px" y="0px"
	 viewBox="0 0 185.5009 185.502" enable-background="new 0 0 185.5009 185.502" xml:space="preserve">
<g id="Default">
	<circle fill="#3C7FC2" cx="92.7505" cy="92.75" r="92.7505"/>
	<g>
		<g>
			<path fill="#D1D3D4" d="M92.9194,155.9551c-1.8584,0-3.7612-0.0508-5.6562-0.1494c-8.1123-0.4248-14.978-1.626-20.9897-3.6699
				c-3.9497-1.3447-6.9277-2.7803-9.3711-4.5195c-3.1851-2.2686-5.1147-4.7676-5.7349-7.4287l0.0044-0.001l-0.0337-0.127
				l-0.0015-0.0049l-0.0005-0.0049c-0.041-0.1719-0.0757-0.334-0.1021-0.4961l-13.686-83.4961l-0.0986-0.6299
				c-0.021-0.1426-0.04-0.2705-0.1099-0.6865c-0.3628-2.1709-0.0762-4.4141,0.8291-6.4863c1.1162-2.5557,3.168-4.958,6.0967-7.1406
				c2.4751-1.8457,5.4844-3.4814,9.2002-5.001c3.4082-1.3965,7.1445-2.5566,11.4224-3.5459
				c8.1147-1.877,16.5439-2.8877,25.0532-3.0049c0.7866-0.0107,1.5737-0.0166,2.3613-0.0166c8.3721,0,16.2451,0.6494,23.4014,1.9287
				c9.3174,1.668,16.4028,3.9736,22.2998,7.2549c4.063,2.2607,10.856,7.1406,10.7021,14.4238l-0.4404,0.0752l0.4404-0.0137
				l0.001,0.04l0.0054,0.0342l-0.0044,0.0898c-0.0874,1.0273-0.1089,1.2529-0.2139,1.7461l-13.8335,84.4248
				c-0.0532,0.3145-0.1284,0.625-0.2227,0.9316c-0.1416,0.5039-0.2368,0.7598-0.5327,1.4277
				c-0.1245,0.2881-0.4658,0.9404-0.8296,1.4795c-1.0137,1.4971-2.0571,2.46-2.9448,3.2051
				c-1.5713,1.3193-3.4248,2.3594-3.9556,2.6465c-2.4199,1.3076-4.4692,2.0664-5.3442,2.3906
				c-3.6147,1.3467-8.3442,2.5195-12.9761,3.2188l-0.6079,0.0918C102.5317,155.6143,97.7793,155.9551,92.9194,155.9551z"/>
		</g>
		<g>
			<path fill="#58595B" d="M92.1022,30.046c7.8002,0,15.6535,0.5509,23.3138,1.9208c7.6348,1.3672,15.3906,3.4414,22.1445,7.1992
				c5.2754,2.9356,10.5781,7.6914,10.4453,13.9766c0,0.0428,0.0039,0.0997,0.0054,0.1469c-0.0013-0.0195-0.0038-0.0414-0.0049-0.059
				c-0.0001-0.0046-0.0003-0.0092-0.0005-0.0137c0,0.0157,0,0.0307,0,0.0307s0-0.0083,0-0.0307
				c0,0.0041,0.0002,0.0087,0.0005,0.0137c0.0015,0.0485,0.0015,0.0985,0.0015,0.1484c-0.084,0.9668-0.1035,1.1738-0.2031,1.6426
				l-13.8379,84.4473c-0.0489,0.291-0.1192,0.58-0.2071,0.8652c-0.1386,0.4941-0.2246,0.7246-0.5117,1.373
				c-0.1211,0.2793-0.4472,0.8985-0.7871,1.4024c-0.9746,1.4394-1.9883,2.3769-2.8516,3.1015
				c-1.5351,1.2891-3.3525,2.3086-3.872,2.5899c-2.3574,1.2734-4.3311,2.0098-5.2803,2.3613
				c-3.5918,1.3379-8.2842,2.5-12.877,3.1934c-0.2031,0.0312-0.4062,0.0605-0.6093,0.0919
				c-4.6368,0.6907-9.3475,1.0075-14.0505,1.0075c-1.88,0-3.759-0.0507-5.6312-0.1483c-7.039-0.3691-14.1924-1.3789-20.8545-3.6445
				c-3.2431-1.1035-6.4707-2.4805-9.2421-4.4531c-2.4874-1.7715-4.8438-4.1563-5.5381-7.1348
				c0.0058,0.0176,0.0117,0.0332,0.0175,0.0489c-0.0175-0.0625-0.0341-0.125-0.0488-0.1875
				c-0.0011-0.0043-0.0023-0.0087-0.0036-0.0131c-0.0351-0.1487-0.0673-0.2993-0.0921-0.4498c0,0-12.0117-73.2813-13.6855-83.4961
				c-0.125-0.7637-0.0762-0.5255-0.209-1.3184c-0.3467-2.0742-0.0625-4.2422,0.7939-6.2031c1.2237-2.8008,3.46-5.0938,5.9375-6.9395
				c2.7549-2.0547,5.8858-3.6289,9.0908-4.9395c3.6602-1.5,7.4776-2.627,11.3458-3.5215c8.1562-1.8867,16.5566-2.877,24.9472-2.9922
				C90.5322,30.0516,91.3167,30.046,92.1022,30.046 M148.0112,53.2894c0.0008,0.0115,0.0011,0.0223,0.0005,0.0309
				C148.0117,53.3107,148.0115,53.3004,148.0112,53.2894 M51.6093,139.8887c0.0029,0.0113,0.0067,0.0226,0.0101,0.0339
				c0.0009,0.0037,0.0017,0.0074,0.0026,0.011C51.6181,139.918,51.6133,139.9043,51.6093,139.8887 M92.1022,29.046
				c-0.7902,0-1.5793,0.0056-2.3681,0.0166c-8.5443,0.1173-17.009,1.1327-25.1587,3.0178
				c-4.3042,0.9953-8.0658,2.1632-11.4996,3.5704c-3.7549,1.5354-6.8002,3.1917-9.3095,5.0632
				c-2.999,2.2341-5.104,4.704-6.256,7.3406c-0.944,2.1615-1.2427,4.5019-0.8639,6.7684c0.0688,0.4108,0.0876,0.5374,0.1084,0.6777
				c0.0192,0.13,0.0402,0.2713,0.1001,0.6373l13.6855,83.4963c0.0278,0.1688,0.0632,0.3369,0.1022,0.5029l-0.0018,0.0004
				l0.0048,0.0186l0.0116,0.04l0.0003-0.0001l0.0033,0.011c0.0038,0.0193,0.0123,0.0531,0.0228,0.093l-0.0032,0.0009
				c0.6487,2.7828,2.6445,5.381,5.9319,7.7223c2.4843,1.7682,5.5029,3.2252,9.5001,4.5853
				c6.0563,2.0596,12.9661,3.2686,21.1243,3.6964c1.9043,0.0992,3.8164,0.1496,5.6835,0.1496c4.8844,0,9.6613-0.3427,14.1979-1.0184
				l0.3104-0.0468l0.3037-0.0458c4.6616-0.7037,9.4279-1.8865,13.074-3.2446c0.883-0.327,2.9549-1.0943,5.4065-2.4186
				c0.5423-0.2937,2.4337-1.3552,4.0398-2.7039c0.9136-0.7668,1.989-1.7595,3.0366-3.3066c0.36-0.5338,0.72-1.2045,0.8765-1.5652
				c0.3049-0.6884,0.4043-0.9562,0.5571-1.5007c0.0958-0.3098,0.1758-0.6442,0.2304-0.9695l13.8386-84.4514
				c0.1063-0.4949,0.1288-0.7539,0.2125-1.7177l0.0037-0.0432v-0.0323h0.0015l0.0048-0.0687l-0.0038-0.0729l-0.0026-0.0621
				c0.1573-7.5673-6.7998-12.5785-10.961-14.8941c-5.9465-3.3086-13.0815-5.6313-22.4545-7.3097
				C108.4069,29.6975,100.5038,29.046,92.1022,29.046L92.1022,29.046z"/>
		</g>
	</g>
	<path fill="#E6E7E8" d="M147.3486,53.5352c0,0.0273,0.0078,0.0527,0.0059,0.08c0-0.0507-0.0059-0.0996-0.0059-0.1523
		c0.1328-6.1914-5.0898-10.875-10.2881-13.7676c-6.6533-3.7012-14.292-5.7441-21.8125-7.0898
		c-8.3056-1.4864-16.8398-1.9942-25.2812-1.877c-8.2657,0.1133-16.5401,1.0899-24.5752,2.9473
		c-3.8096,0.8808-7.5703,1.9922-11.1758,3.4687c-3.1563,1.2911-6.2402,2.8418-8.9541,4.8653
		c-2.4404,1.8183-4.6436,4.0781-5.8477,6.8359c-1.3359,3.0547-1.2607,6.6191,0.4561,9.5274
		c1.7129,2.8984,4.6211,5.041,7.5449,6.7539c3.292,1.9277,6.8799,3.3535,10.5381,4.5117
		c7.8057,2.4726,15.9668,3.7988,24.1504,4.4336c8.4453,0.6504,16.9609,0.541,25.3818-0.3399
		c8.0645-0.8457,16.1729-2.4004,23.7422-5.2422c3.5088-1.3164,6.9316-2.9629,9.9424-5.1484
		c2.6894-1.9512,5.1289-4.4746,5.8965-7.6973c0.0097-0.0468,0.0615-0.1777,0.0615-0.2226c0.1191-0.543,0.1348-0.7031,0.2227-1.7266
		C147.3506,53.6426,147.3506,53.5879,147.3486,53.5352C147.3486,53.5762,147.3486,53.5762,147.3486,53.5352
		C147.3486,53.5625,147.3486,53.5879,147.3486,53.5352z"/>
	<path fill="#333E42" d="M93.4746,36.4707c-22.9238-0.1523-41.8311,6.7969-42.2315,15.5215
		c-0.3994,8.7226,17.8584,15.9199,40.7823,16.0723c22.9248,0.1523,41.832-6.7969,42.2324-15.5215
		C134.6562,43.8184,116.3994,36.6231,93.4746,36.4707z"/>
	<path fill="#FFFFFF" d="M130.2246,57.9922c-0.041,0.0371-0.0801,0.0703-0.1133,0.0976c-0.7266,0.6211-1.4512,1.129-2.0342,1.504
		c-0.4355,0.2734-0.8974,0.5449-1.3935,0.8125c-0.0332,0.0195-0.0664,0.0371-0.1026,0.0566
		c-0.8623,0.4609-1.8135,0.9102-2.8427,1.3418c-0.0645,0.0273-0.127,0.0566-0.1934,0.084
		c-5.0645,2.1015-12.0117,3.8144-20.0361,4.6406c-1.5723,0.1563-3.2881,0.293-4.6768,0.3691
		c-2.1211,0.1153-3.9521,0.1543-5.1992,0.1641c-0.543,0.0039-1.086,0.0059-1.6328,0c-17.9737-0.1641-31.5879-4.4492-36.7227-9.1094
		c5.3535-6.041,20.499-10.3457,38.1465-10.2285C110.623,47.8398,125.0625,52.1191,130.2246,57.9922z"/>
</g>
</svg>
