<?xml version="1.0" encoding="utf-8"?>
<!-- Generator: Adobe Illustrator 18.1.1, SVG Export Plug-In . SVG Version: 6.00 Build 0)  -->
<svg version="1.1" id="XMLID_2_" xmlns="http://www.w3.org/2000/svg" xmlns:xlink="http://www.w3.org/1999/xlink" x="0px" y="0px"
	 viewBox="0 0 185.501 185.5019" enable-background="new 0 0 185.501 185.5019" xml:space="preserve">
<g id="LaTeX">
	<circle fill="#B21E8E" cx="92.7505" cy="92.75" r="92.7505"/>
	<g>
		<g>
			<path fill="#D1D3D4" d="M92.919,155.955c-1.8574,0-3.7607-0.0503-5.6562-0.1489c-8.1113-0.4258-14.9775-1.626-20.9893-3.6704
				c-3.9502-1.3442-6.9277-2.7803-9.3711-4.5195c-3.1855-2.2686-5.1143-4.7676-5.7354-7.4287l0.0049-0.001l-0.0342-0.1313
				l-0.001-0.0054c-0.042-0.1719-0.0762-0.334-0.1025-0.4961L37.3487,56.0576c0,0-0.1396-0.9009-0.209-1.3169
				c-0.3623-2.1709-0.0762-4.4136,0.8291-6.4858c1.1162-2.5557,3.168-4.958,6.0967-7.1401
				c2.4746-1.8462,5.4844-3.4819,9.2002-5.0015c3.4082-1.3965,7.1445-2.5566,11.4229-3.5459
				c8.1143-1.877,16.543-2.8882,25.0527-3.0049c0.7861-0.0107,1.5732-0.0166,2.3613-0.0166c8.3721,0,16.2451,0.6489,23.4014,1.9287
				c9.3174,1.6685,16.4033,3.9736,22.2998,7.2544c4.0625,2.2607,10.8555,7.1411,10.7021,14.4243l-0.4395,0.0747l0.4395-0.0132
				l0.0068,0.0742l-0.0049,0.0898c-0.0869,1.0273-0.1094,1.2524-0.2139,1.7466l-13.834,84.4243
				c-0.0527,0.3145-0.1279,0.625-0.2227,0.9316c-0.1406,0.5044-0.2363,0.7598-0.5322,1.4282
				c-0.124,0.2871-0.4658,0.9399-0.8291,1.4795c-1.0137,1.4966-2.0576,2.46-2.9453,3.2046
				c-1.5713,1.3198-3.4248,2.3594-3.9551,2.647c-2.4209,1.3071-4.4697,2.0664-5.3447,2.3901
				c-3.6143,1.3462-8.3447,2.5195-12.9766,3.2192l-0.6074,0.0913C102.5323,155.6142,97.7793,155.955,92.919,155.955z"/>
		</g>
		<g>
			<path fill="#58595B" d="M92.1039,30.046c7.7996,0,15.6525,0.551,23.3122,1.9208c7.6348,1.3671,15.3907,3.4414,22.1445,7.1992
				c5.2754,2.9355,10.5781,7.6914,10.4453,13.9765c0,0.0425,0.0038,0.0989,0.0052,0.1459c-0.0013-0.0194-0.0038-0.041-0.0048-0.0582
				c-0.0001-0.0045-0.0004-0.0089-0.0005-0.0134c0,0.0157,0,0.0307,0,0.0307s0-0.0082,0-0.0307c0,0.004,0.0001,0.0085,0.0005,0.0134
				c0.0015,0.0485,0.0015,0.0986,0.0015,0.1487c-0.084,0.9668-0.1035,1.1738-0.2031,1.6425l-13.8379,84.4473
				c-0.0488,0.291-0.1191,0.5801-0.207,0.8652c-0.1387,0.4942-0.2246,0.7247-0.5117,1.3731
				c-0.1211,0.2793-0.4473,0.8984-0.7872,1.4023c-0.9746,1.4395-1.9882,2.377-2.8515,3.1016
				c-1.5352,1.2891-3.3526,2.3086-3.8721,2.5898c-2.3574,1.2735-4.331,2.0098-5.2803,2.3614
				c-3.5918,1.3379-8.2841,2.5-12.8769,3.1933c-0.2031,0.0313-0.4063,0.0606-0.6094,0.0918
				c-4.6371,0.6908-9.3481,1.0076-14.0515,1.0076c-1.8796,0-3.7583-0.0506-5.6301-0.1482
				c-7.0391-0.3691-14.1924-1.3789-20.8545-3.6445c-3.2432-1.1035-6.4707-2.4805-9.2422-4.4532
				c-2.4873-1.7714-4.8438-4.1562-5.5381-7.1347c0.0059,0.0176,0.0117,0.0332,0.0176,0.0488
				c-0.0176-0.0625-0.0342-0.125-0.0488-0.1875c-0.001-0.0042-0.0023-0.0085-0.0035-0.0127
				c-0.0352-0.1489-0.0674-0.2996-0.0922-0.4503c0,0-12.0118-73.2812-13.6855-83.4961c-0.125-0.7636-0.0762-0.5255-0.209-1.3183
				c-0.3467-2.0743-0.0625-4.2422,0.794-6.2032c1.2236-2.8007,3.4599-5.0937,5.9375-6.9394
				c2.7549-2.0547,5.8857-3.6289,9.0908-4.9395c3.6601-1.5,7.4775-2.6269,11.3457-3.5215
				c8.1562-1.8867,16.5566-2.8769,24.9473-2.9921C90.5328,30.0516,91.3178,30.046,92.1039,30.046 M148.0111,53.2884
				c0.0009,0.0119,0.0012,0.0231,0.0006,0.0319C148.0117,53.3104,148.0115,53.2996,148.0111,53.2884 M51.6094,139.8886
				c0.0029,0.0114,0.0067,0.0229,0.0101,0.0342c0.0009,0.0036,0.0017,0.0072,0.0026,0.0108
				C51.6182,139.9179,51.6133,139.9043,51.6094,139.8886 M92.1039,29.046c-0.7907,0-1.5803,0.0057-2.3697,0.0166
				c-8.5446,0.1173-17.0092,1.1326-25.1587,3.0178c-4.305,0.9955-8.0666,2.1635-11.4996,3.5704
				c-3.7546,1.5353-6.8,3.1916-9.3094,5.0632c-2.9991,2.2342-5.1041,4.704-6.256,7.3406c-0.944,2.1614-1.2427,4.5018-0.864,6.7684
				c0.0688,0.411,0.0876,0.5375,0.1085,0.678c0.0192,0.1299,0.0402,0.2712,0.1,0.637l13.6856,83.4963
				c0.0272,0.1659,0.062,0.3316,0.1004,0.4955l-0.0019,0.0005l0.0057,0.023l0.0132,0.0452l0.0002-0.0001l0.004,0.0132
				c0.0031,0.0166,0.011,0.0493,0.0215,0.0886l-0.0032,0.0009c0.6487,2.7828,2.6444,5.381,5.9319,7.7222
				c2.4845,1.7684,5.5032,3.2254,9.5001,4.5854c6.0562,2.0595,12.9659,3.2686,21.1243,3.6964
				c1.9037,0.0993,3.8154,0.1496,5.6824,0.1496c4.8846,0,9.6618-0.3427,14.1989-1.0185l0.2963-0.0446l0.3181-0.0479
				c4.6611-0.7036,9.4274-1.8864,13.0736-3.2445c0.8831-0.3271,2.9553-1.0945,5.4066-2.4186
				c0.542-0.2934,2.4326-1.3542,4.0399-2.7039c0.9135-0.7667,1.9887-1.7592,3.0365-3.3068
				c0.3604-0.5341,0.7203-1.2047,0.8766-1.5652c0.3046-0.6878,0.4041-0.9556,0.557-1.5007
				c0.0959-0.3099,0.1759-0.6444,0.2305-0.9699l13.8385-84.4511c0.1063-0.4949,0.1288-0.7539,0.2125-1.7176l0.0038-0.0432v-0.0305
				h0.0013l0.005-0.0699l-0.0039-0.0735l-0.0026-0.0618c0.1573-7.5677-6.7997-12.5789-10.9609-14.8944
				c-5.9468-3.3088-13.0819-5.6315-22.4545-7.3096C108.4074,29.6975,100.5049,29.046,92.1039,29.046L92.1039,29.046z"/>
		</g>
	</g>
	<path fill="#E6E7E8" d="M148.0059,53.2168c0,0.0273,0.0078,0.0527,0.0058,0.082c0-0.0527-0.0058-0.1035-0.0058-0.1563
		c0.1347-6.2851-5.168-11.041-10.4453-13.9765c-6.7539-3.7578-14.5088-5.8321-22.1446-7.1992
		c-8.4316-1.5079-17.0957-2.0235-25.666-1.9043c-8.3916,0.1152-16.792,1.1054-24.9492,2.9921
		c-3.8672,0.8946-7.6856,2.0215-11.3457,3.5215c-3.2041,1.3106-6.335,2.8848-9.0899,4.9395
		c-2.4785,1.8457-4.7148,4.1387-5.9375,6.9394c-1.3554,3.1016-1.2793,6.7207,0.4639,9.6719
		c1.7383,2.9434,4.6904,5.1192,7.6592,6.8574c3.3418,1.9571,6.9844,3.4043,10.6982,4.5801c7.9248,2.5117,16.21,3.8574,24.5186,4.5
		c8.5732,0.6621,17.2187,0.5508,25.7676-0.3437c8.1875-0.8575,16.4189-2.4356,24.1035-5.3203
		c3.5625-1.3379,7.0371-3.0098,10.0937-5.2286c2.7305-1.9804,5.2071-4.541,5.9864-7.8144c0.0097-0.0469,0.0625-0.1797,0.0625-0.2266
		c0.1211-0.5508,0.1367-0.7129,0.2265-1.7519C148.0078,53.3242,148.0078,53.2695,148.0059,53.2168
		C148.0059,53.2578,148.0059,53.2578,148.0059,53.2168C148.0059,53.2441,148.0059,53.2695,148.0059,53.2168z"/>
	<path fill="#58595B" d="M93.4746,36.4707c-22.9238-0.1524-41.831,6.7968-42.2314,15.5214
		c-0.3994,8.7227,17.8584,15.92,40.7822,16.0723c22.9248,0.1524,41.832-6.7969,42.2324-15.5215
		C134.6563,43.8183,116.3994,36.623,93.4746,36.4707z"/>
	<path fill="#D20F8C" d="M130.2246,57.9921c-0.041,0.0372-0.0801,0.0704-0.1133,0.0977c-0.7265,0.6211-1.4511,1.1289-2.0341,1.5039
		c-0.4356,0.2734-0.8975,0.5449-1.3936,0.8125c-0.0332,0.0195-0.0664,0.0371-0.1025,0.0567
		c-0.8623,0.4609-1.8135,0.9101-2.8428,1.3417c-0.0645,0.0274-0.127,0.0567-0.1934,0.084
		c-5.0644,2.1016-12.0117,3.8145-20.0361,4.6407c-1.5723,0.1562-3.2881,0.2929-4.6768,0.3691
		c-2.1211,0.1152-3.9521,0.1543-5.1992,0.1641c-0.5429,0.0039-1.0859,0.0058-1.6328,0
		c-17.9736-0.1641-31.5879-4.4493-36.7226-9.1094c5.3535-6.041,20.499-10.3457,38.1464-10.2285
		C110.6231,47.8398,125.0625,52.1191,130.2246,57.9921z"/>
	<g>
		<g transform="matrix(45,0,0,45,40,40)">
			<path fill="#58595B" d="M0.6518,1.5035C0.6446,1.5023,0.641,1.5017,0.6337,1.5005c0.0021,0.0711,0.0035,0.1598-0.1184,0.1338
				C0.4928,1.6296,0.4816,1.6271,0.4592,1.6219C0.4268,1.6144,0.4245,1.6088,0.4201,1.5851
				C0.3919,1.4329,0.3779,1.3568,0.3497,1.2045C0.3452,1.1801,0.3432,1.1709,0.4155,1.1869
				c0.0102,0.0022,0.0152,0.0034,0.0254,0.0055C0.4395,1.1838,0.4388,1.1795,0.4374,1.171C0.4099,1.1672,0.3405,1.1511,0.309,1.1431
				c-0.03-0.0076-0.0896-0.0239-0.1161-0.0336c0.0019,0.0087,0.0028,0.013,0.0047,0.0217c0.007,0.002,0.0105,0.003,0.0175,0.005
				C0.2736,1.1529,0.2769,1.1607,0.282,1.1866c0.0302,0.1511,0.0453,0.2267,0.0755,0.3778C0.3627,1.5904,0.3627,1.5984,0.31,1.5834
				C0.3037,1.5816,0.3006,1.5807,0.2943,1.5789c0.0019,0.009,0.0029,0.0135,0.0048,0.0224c0.1411,0.041,0.2127,0.0572,0.3566,0.0811
				C0.6539,1.6108,0.6531,1.575,0.6518,1.5035z"/>
			<path fill="#58595B" d="M0.6012,1.2012C0.597,1.1921,0.595,1.1891,0.5849,1.1874C0.5747,1.1857,0.5728,1.1881,0.5708,1.196
				C0.5362,1.3031,0.5207,1.3565,0.4929,1.463c-0.0031,0.011-0.0082,0.0316-0.0525,0.0214
				c0.0013,0.0072,0.0019,0.0107,0.0031,0.0179c0.0442,0.0102,0.0663,0.0149,0.1107,0.0234
				C0.5532,1.5186,0.5526,1.5151,0.5516,1.508C0.5293,1.5037,0.5141,1.4908,0.5118,1.4766c-0.0006-0.0036,0-0.0049,0.0007-0.0095
				c0.006-0.0225,0.009-0.0338,0.0153-0.0563C0.586,1.4222,0.6153,1.4273,0.6739,1.4361C0.6891,1.4667,0.6967,1.482,0.7115,1.5124
				c0.0018,0.003,0.0036,0.0068,0.0038,0.0089c0.0015,0.0141-0.026,0.0102-0.0397,0.0081C0.6765,1.5365,0.6769,1.54,0.6778,1.5471
				c0.0567,0.0087,0.0851,0.0124,0.1421,0.0185C0.8192,1.5585,0.819,1.5551,0.8184,1.548C0.8143,1.5476,0.8123,1.5473,0.8082,1.5469
				C0.7741,1.5431,0.77,1.5376,0.7635,1.5229C0.7021,1.3957,0.6697,1.3314,0.6012,1.2012z M0.5768,1.2463
				c0.036,0.0688,0.0535,0.103,0.0876,0.171C0.6115,1.4092,0.5851,1.4047,0.5325,1.3945C0.5492,1.3353,0.5581,1.3056,0.5768,1.2463z
				"/>
			<path fill="#58595B" d="M1.2296,1.2511C1.0382,1.2547,0.9422,1.25,0.7517,1.2273C0.752,1.2898,0.7521,1.321,0.7528,1.3835
				C0.7601,1.3844,0.7638,1.3849,0.771,1.3857c0-0.1122,0.0097-0.1321,0.1276-0.1231c0.014,0.0011,0.0343,0.0024,0.0422,0.0044
				c0.0166,0.0038,0.017,0.0116,0.0177,0.0277C0.9655,1.4421,0.969,1.5158,0.976,1.6632c0.0011,0.0239,0.0015,0.0346-0.0723,0.0284
				C0.8924,1.6907,0.8868,1.6902,0.8756,1.6892c0.0007,0.0087,0.001,0.0131,0.0016,0.0219
				c0.0285,0.0005,0.0992,0.0056,0.1314,0.0072C1.0408,1.7198,1.113,1.7218,1.1418,1.7241c0-0.0087-0.0001-0.013-0.0002-0.0217
				C1.1303,1.7023,1.1247,1.7022,1.1135,1.702c-0.074-0.0012-0.0742-0.0118-0.075-0.0357c-0.0047-0.1473-0.007-0.221-0.0117-0.3682
				C1.0263,1.2841,1.026,1.2742,1.04,1.272c0.0086-0.0011,0.0297-0.0004,0.0446-0.0001c0.1173,0.0026,0.1291,0.0237,0.1381,0.1363
				C1.2302,1.4081,1.234,1.408,1.2415,1.4078C1.237,1.3451,1.2346,1.3138,1.2296,1.2511z"/>
			<path fill="#58595B" d="M1.5992,1.671c-0.007,0.001-0.0105,0.0015-0.0175,0.0024c-0.029,0.1104-0.0491,0.166-0.1644,0.1759
				c-0.0356,0.003-0.0535,0.0043-0.0891,0.0063C1.2965,1.8573,1.2954,1.8524,1.2962,1.8292c0.0026-0.0747,0.004-0.112,0.0066-0.1867
				c0.0254-0.0011,0.0381-0.0018,0.0635-0.0035c0.0692-0.0045,0.0754,0.0166,0.0712,0.0764c0.007-0.0006,0.0105-0.001,0.0175-0.0016
				c0.0056-0.0743,0.0084-0.1114,0.014-0.1857C1.4616,1.5288,1.458,1.5292,1.4507,1.5298C1.4464,1.5896,1.437,1.6128,1.3674,1.6173
				C1.3419,1.619,1.3291,1.6197,1.3036,1.6208c0.0024-0.0671,0.0036-0.1006,0.006-0.1677C1.3104,1.43,1.312,1.4252,1.3474,1.4233
				c0.0385-0.0021,0.0578-0.0035,0.0963-0.0067c0.115-0.0097,0.1309,0.0246,0.1326,0.1212
				c0.0072-0.0009,0.0109-0.0014,0.0181-0.0024C1.593,1.4732,1.5921,1.4421,1.5901,1.38C1.4213,1.4017,1.3363,1.4072,1.1666,1.4074
				c0,0.0084-0.0001,0.0126-0.0001,0.021c0.0069,0,0.0104,0,0.0174-0.0001c0.0581-0.0004,0.0595,0.0068,0.059,0.0321
				C1.24,1.6067,1.2385,1.6799,1.2357,1.8263c-0.0005,0.0252-0.002,0.0334-0.054,0.0338c-0.0062,0-0.0094,0-0.0156,0.0001
				c0,0.0087,0,0.0131,0,0.0218C1.3204,1.8817,1.3977,1.8766,1.551,1.8564C1.5697,1.7823,1.5794,1.7453,1.5992,1.671z"/>
			<path fill="#58595B" d="M1.8499,1.3822C1.8996,1.3166,1.925,1.2833,1.9773,1.2158C1.9974,1.1889,2.0281,1.16,2.096,1.1403
				c0.0018-0.0087,0.0027-0.013,0.0045-0.0216C2.0276,1.139,1.991,1.1482,1.9175,1.1646C1.916,1.1731,1.9153,1.1774,1.9138,1.186
				c0.0306-0.0061,0.0446,0.0056,0.0417,0.022C1.9542,1.2152,1.9524,1.217,1.9457,1.2261C1.9025,1.2823,1.8813,1.3101,1.8398,1.365
				C1.8107,1.3182,1.7954,1.2946,1.7636,1.2471C1.7623,1.2452,1.7593,1.2403,1.7597,1.2374C1.7608,1.229,1.7796,1.2139,1.8121,1.207
				C1.8134,1.1985,1.814,1.1942,1.8152,1.1857C1.7885,1.1929,1.7317,1.2028,1.7021,1.2075c-0.0241,0.0038-0.0725,0.01-0.1013,0.0123
				C1.6,1.2282,1.5996,1.2325,1.5987,1.2409C1.6046,1.2402,1.6076,1.2398,1.6135,1.239c0.0428-0.0056,0.057-0.003,0.0693,0.0145
				C1.73,1.3233,1.7522,1.3577,1.7939,1.426C1.7358,1.5039,1.7076,1.5423,1.6531,1.6178C1.6415,1.6335,1.6167,1.67,1.5467,1.6787
				C1.5458,1.6874,1.5454,1.6918,1.5445,1.7006c0.0663-0.0082,0.0994-0.0132,0.1653-0.0251
				c0.0012-0.0088,0.0019-0.0132,0.0031-0.022c-0.0319,0.005-0.0414-0.0123-0.0398-0.0251C1.674,1.6221,1.6765,1.6189,1.6824,1.6103
				C1.73,1.5443,1.7545,1.511,1.8048,1.4432c0.0356,0.0586,0.0524,0.0875,0.084,0.1453C1.8896,1.591,1.8912,1.5934,1.8908,1.5956
				C1.8893,1.6042,1.8719,1.62,1.8419,1.6274C1.8404,1.6363,1.8397,1.6408,1.8382,1.6496C1.8627,1.642,1.9128,1.63,1.9381,1.6234
				c0.0287-0.0074,0.06-0.0153,0.0882-0.0221c0.0019-0.009,0.0029-0.0135,0.0049-0.0224C2.026,1.5804,2.0234,1.5811,2.0181,1.5826
				C1.9826,1.5928,1.9689,1.5929,1.9588,1.5744C1.9188,1.4981,1.897,1.4598,1.8499,1.3822z"/>
		</g>
	</g>
</g>
</svg>
