<?xml version="1.0" encoding="utf-8"?>
<!-- Generator: Adobe Illustrator 18.1.1, SVG Export Plug-In . SVG Version: 6.00 Build 0)  -->
<svg version="1.1" id="XMLID_2_" xmlns="http://www.w3.org/2000/svg" xmlns:xlink="http://www.w3.org/1999/xlink" x="0px" y="0px"
	 viewBox="0 0 185.502 185.501" enable-background="new 0 0 185.502 185.501" xml:space="preserve">
<g id="Objective-C">
	<circle fill="#BCD631" cx="92.751" cy="92.7505" r="92.751"/>
	<g>
		<g>
			<path fill="#D1D3D4" d="M92.9209,155.9541c-1.8594,0-3.7627-0.0498-5.6582-0.1489c-8.1074-0.4243-14.9736-1.625-20.9893-3.6709
				c-3.9492-1.3423-6.9268-2.7783-9.3711-4.519c-3.1855-2.2686-5.1152-4.7676-5.7354-7.4277l0.0049-0.001l-0.0342-0.1299
				l-0.001-0.0068c-0.042-0.1753-0.0762-0.3354-0.1025-0.4961L37.3486,56.0582L37.25,55.4292
				c-0.0215-0.1431-0.04-0.2705-0.1104-0.6885c-0.3623-2.1714-0.0762-4.4146,0.8291-6.4868
				c1.1162-2.5542,3.167-4.9561,6.0967-7.1396c2.4756-1.8452,5.4844-3.4814,9.2002-5.002c3.4121-1.397,7.1484-2.5562,11.4229-3.5449
				c8.1162-1.877,16.5449-2.8882,25.0527-3.0054c0.7832-0.0107,1.5664-0.0161,2.3506-0.0161c8.3828,0,16.2598,0.6489,23.4121,1.9287
				c9.3164,1.668,16.4024,3.9731,22.2998,7.2544c4.0625,2.2612,10.8555,7.1421,10.7021,14.4248l-0.4316,0.0732l0.4316-0.0132
				l0.001,0.041l0.0059,0.0342l-0.002,0.0669l-0.0029,0.0225c-0.0879,1.0288-0.1094,1.2549-0.2139,1.7466l-13.834,84.4238
				c-0.0527,0.3145-0.1279,0.6245-0.2227,0.9321c-0.1416,0.5063-0.2373,0.7622-0.5322,1.4287
				c-0.124,0.2861-0.4648,0.938-0.8301,1.4785c-1.0117,1.4956-2.0557,2.459-2.9443,3.2046
				c-1.5605,1.3105-3.4219,2.3579-3.9551,2.6475c-2.3955,1.2944-4.3877,2.0347-5.3447,2.3906
				c-3.6191,1.3472-8.3486,2.5205-12.9766,3.2192l-0.6104,0.0908C102.5303,155.6133,97.7783,155.9541,92.9209,155.9541z"/>
		</g>
		<g>
			<path fill="#58595B" d="M92.0924,30.0458c7.8032,0,15.6603,0.5497,23.3236,1.921c7.6338,1.3667,15.3906,3.4415,22.1446,7.1993
				c5.2753,2.936,10.5781,7.6909,10.4453,13.977c0,0.0419,0.0037,0.0974,0.0052,0.1443c-0.0013-0.0198-0.0038-0.0416-0.0048-0.0588
				c-0.0001-0.0043-0.0002-0.0085-0.0004-0.0127c0,0.0157,0,0.0314,0,0.0314s0-0.0084,0-0.0314
				c0,0.0038,0.0002,0.0081,0.0004,0.0127c0.0015,0.0499,0.0015,0.0999,0.0015,0.1499c-0.084,0.9662-0.1035,1.1747-0.2031,1.6425
				l-13.8379,84.4468c-0.0488,0.291-0.1191,0.5801-0.207,0.8662c-0.1387,0.4932-0.2246,0.7246-0.5117,1.3731
				c-0.1211,0.2793-0.4473,0.8974-0.7872,1.4013c-0.9746,1.4405-1.9882,2.377-2.8515,3.1016
				c-1.5361,1.29-3.3526,2.3086-3.8721,2.5908c-2.3574,1.2735-4.332,2.0088-5.2803,2.3614c-3.5918,1.3369-8.2841,2.5-12.8769,3.1933
				c-0.2031,0.0303-0.4063,0.0606-0.6094,0.0908c-4.6367,0.6907-9.347,1.0081-14.05,1.0081c-1.88,0-3.7594-0.0508-5.6316-0.1487
				c-7.0391-0.3682-14.1924-1.3789-20.8545-3.6445c-3.2432-1.1026-6.4707-2.4795-9.2422-4.4531
				c-2.4873-1.7715-4.8438-4.1553-5.5381-7.1338c0.0059,0.0166,0.0117,0.0322,0.0176,0.0488
				c-0.0176-0.0625-0.0342-0.125-0.0488-0.1875c-0.0012-0.0051-0.0026-0.0102-0.0041-0.0151
				c-0.035-0.1489-0.067-0.2979-0.0916-0.4478c0,0-12.0118-73.2822-13.6856-83.4956c-0.125-0.7651-0.0762-0.5264-0.209-1.3188
				c-0.3467-2.0752-0.0625-4.2432,0.794-6.2041c1.2236-2.7999,3.4599-5.0923,5.9375-6.939c2.7548-2.0537,5.8857-3.6284,9.0908-4.94
				c3.6601-1.4985,7.4775-2.6259,11.3457-3.5205c8.1562-1.8862,16.5566-2.8769,24.9473-2.9926
				C90.5292,30.0513,91.31,30.0458,92.0924,30.0458 M148.0111,53.2875c0.0009,0.0125,0.0013,0.0241,0.0006,0.0333
				C148.0117,53.3105,148.0115,53.2992,148.0111,53.2875 M51.6094,139.8877c0.0027,0.0108,0.0063,0.0216,0.0096,0.0327
				c0.001,0.0044,0.0021,0.0088,0.0031,0.0132C51.6182,139.918,51.6133,139.9034,51.6094,139.8877 M92.0924,29.0458
				c-0.787,0-1.5724,0.0056-2.3581,0.0164c-8.5433,0.1178-17.008,1.1332-25.1588,3.0182
				c-4.3012,0.9948-8.0626,2.1624-11.4993,3.5694c-3.7552,1.5367-6.8005,3.1931-9.3096,5.0637
				c-2.9999,2.236-5.1048,4.7056-6.2561,7.3403c-0.9441,2.1614-1.2428,4.5021-0.864,6.7693
				c0.0692,0.4128,0.0878,0.5382,0.1087,0.6795c0.0192,0.1293,0.0402,0.2713,0.0997,0.6357l13.6856,83.4961
				c0.0272,0.1657,0.0619,0.3303,0.1003,0.4948l-0.0017,0.0004l0.0047,0.0188l0.0117,0.0414l0.0003-0.0001l0.0045,0.0151
				c0.0041,0.0205,0.0127,0.0551,0.0234,0.0955l-0.0032,0.0009c0.6485,2.782,2.6442,5.3799,5.9319,7.7213
				c2.4851,1.7697,5.5039,3.2267,9.5004,4.5854c6.0594,2.0607,12.9692,3.2697,21.1242,3.6964c1.9036,0.0995,3.8159,0.15,5.6838,0.15
				c4.8816,0,9.6583-0.3428,14.1973-1.019l0.6097-0.0909c4.6613-0.7036,9.4275-1.8864,13.0782-3.2451
				c0.9676-0.3598,2.9816-1.1087,5.4067-2.4188c0.6987-0.3795,2.4867-1.4005,4.0399-2.7048
				c0.9145-0.7675,1.9905-1.7608,3.0367-3.307c0.3609-0.535,0.7208-1.2048,0.8764-1.5638c0.3003-0.6783,0.405-0.96,0.5569-1.5002
				c0.0964-0.3127,0.1762-0.6474,0.2306-0.9716l13.8385-84.4503c0.106-0.4924,0.1286-0.752,0.2125-1.7176l0.0038-0.0432v-0.0303
				l0.0014,0.0001l0.0049-0.0697l-0.0037-0.0702l-0.0001-0.0032l-0.0026-0.0621c0.1573-7.5667-6.7997-12.5782-10.9608-14.8942
				c-5.9479-3.3093-13.083-5.6321-22.4547-7.3099C108.4104,29.6974,100.504,29.0458,92.0924,29.0458L92.0924,29.0458z"/>
		</g>
	</g>
	<path fill="#E6E7E8" d="M148.0059,53.2159c0,0.0273,0.0078,0.0542,0.0058,0.082c0-0.0518-0.0058-0.1025-0.0058-0.1548
		c0.1347-6.2861-5.168-11.041-10.4453-13.977c-6.754-3.7578-14.5088-5.8326-22.1446-7.1993
		c-8.4316-1.5087-17.0957-2.0229-25.666-1.9047c-8.3916,0.1157-16.792,1.1064-24.9492,2.9926
		c-3.8672,0.8946-7.6856,2.022-11.3457,3.5205c-3.2041,1.3116-6.335,2.8863-9.0899,4.94c-2.4785,1.8467-4.7148,4.1391-5.9375,6.939
		c-1.3554,3.1015-1.2793,6.7211,0.4639,9.6723c1.7383,2.9439,4.6904,5.1187,7.6592,6.8569
		c3.3418,1.9571,6.9844,3.4053,10.6982,4.5811c7.9248,2.5107,16.21,3.8574,24.5186,4.5c8.5732,0.6621,17.2187,0.5508,25.7676-0.3447
		c8.1875-0.8574,16.4189-2.4356,24.1035-5.3203c3.5625-1.337,7.0371-3.0098,10.0937-5.2276
		c2.7305-1.9804,5.2071-4.542,5.9864-7.8149c0.0097-0.0469,0.0625-0.1792,0.0625-0.2256c0.1211-0.5513,0.1367-0.7139,0.2265-1.7529
		C148.0078,53.3243,148.0078,53.2701,148.0059,53.2159C148.0059,53.2569,148.0059,53.2569,148.0059,53.2159
		C148.0059,53.2432,148.0059,53.2701,148.0059,53.2159z"/>
	<path fill="#58595B" d="M93.4746,36.4708c-22.9238-0.1524-41.831,6.7968-42.2314,15.5205
		c-0.3994,8.7241,17.8584,15.9199,40.7822,16.0727c22.9248,0.1519,41.832-6.7969,42.2324-15.521
		C134.6563,43.8189,116.3994,36.6231,93.4746,36.4708z"/>
	<path fill="#D3BD2A" d="M130.2246,57.9917c-0.041,0.0372-0.0801,0.0704-0.1133,0.0987c-0.7265,0.6211-1.4521,1.1279-2.0341,1.5029
		c-0.4356,0.2744-0.8985,0.5459-1.3946,0.8135c-0.0332,0.0195-0.0664,0.0371-0.1015,0.0566
		c-0.8633,0.46-1.8145,0.9092-2.8438,1.3418c-0.0644,0.0274-0.1269,0.0557-0.1933,0.083
		c-5.0635,2.1026-12.0108,3.8145-20.0352,4.6416c-1.5723,0.1553-3.2881,0.293-4.6768,0.3692
		c-2.1211,0.1152-3.9521,0.1533-5.1992,0.164c-0.5429,0.0039-1.0859,0.0049-1.6328,0c-17.9736-0.164-31.5879-4.4492-36.7226-9.1093
		c5.3535-6.0425,20.499-10.3457,38.1464-10.229C110.6231,47.8394,125.0615,52.1187,130.2246,57.9917z"/>
	<g>
		<g>
			<path fill="#58595B" d="M69.8965,133.3516c-1.343-15.783-2.6861-31.5659-4.0302-47.3488
				c4.5865,0.8993,6.914,1.2524,11.596,1.7653c0.0639,1.2998,0.0959,1.9497,0.1599,3.2495
				c-2.9121-0.319-4.3622-0.5163-7.2407-0.9864c0.9765,13.5719,1.9524,27.1439,2.9284,40.7159
				c2.5076,0.4095,3.7707,0.5813,6.3073,0.8592c0.0639,1.2998,0.0959,1.9496,0.1598,3.2494
				C75.7882,134.4189,73.8056,134.1181,69.8965,133.3516z"/>
			<path fill="#58595B" d="M104.0563,127.4454c-1.321,0.8209-4.2068,1.9975-7.8609,2.0873
				c-8.2075,0.2018-13.7538-6.239-14.083-14.9731c-0.3315-8.7935,5.766-14.437,15.5973-14.7621
				c3.2361-0.107,6.0663,0.4394,7.5166,1.0177c-0.5568,1.6489-0.8321,2.4719-1.3764,4.1153
				c-1.2527-0.6073-3.2556-1.1048-6.2023-1.0073c-6.8135,0.2253-10.4059,4.7798-10.2886,10.7335
				c0.1301,6.6021,4.32,10.8988,9.7955,10.725c2.8515-0.0905,4.7491-0.9966,6.1994-1.7604
				C103.6396,125.1518,103.7801,125.9166,104.0563,127.4454z"/>
			<path fill="#58595B" d="M120.3438,85.9434c-1.3448,15.8028-2.6896,31.6055-4.0352,47.4082
				c-3.9075,0.7665-5.8912,1.0673-9.88,1.5042c0.0638-1.2998,0.0958-1.9497,0.1596-3.2495
				c2.5367-0.2778,3.8001-0.4496,6.3077-0.8592c0.9776-13.5917,1.955-27.1834,2.9328-40.7751
				c-2.8788,0.4702-4.3294,0.6675-7.2421,0.9866c0.064-1.2998,0.096-1.9497,0.1601-3.2495
				C113.4294,87.196,115.758,86.8429,120.3438,85.9434z"/>
		</g>
	</g>
</g>
</svg>
